Grammy Performance Song's Streams and Position
…
The data were tidy prior to uploading. I used pivot_longer to make the data into a single column to be able to categorize the number of streams into high, med, and low and categorize the chart position of the songs into top10, top50, top100, and top200 later.

Wrangling Data

## arranging Everying I wanted by highest global position
charts %>% arrange(Global_Position.EIW) %>% select("Date", "Global_streams.EIW", 
    "Global_Position.EIW")

## # A tibble: 57 x 3
##    Date                Global_streams.EIW Global_Position.EIW
##    <dttm>                           <dbl>               <dbl>
##  1 2019-11-21 00:00:00           40323676                   2
##  2 2019-11-28 00:00:00           30455759                   3
##  3 2019-12-05 00:00:00           27081940                   5
##  4 2019-12-12 00:00:00           22700664                  10
##  5 2020-01-02 00:00:00           21828884                  10
##  6 2019-12-19 00:00:00           22786542                  11
##  7 2020-01-09 00:00:00           23713150                  11
##  8 2020-01-30 00:00:00           26396743                  11
##  9 2020-02-06 00:00:00           26024099                  11
## 10 2020-02-13 00:00:00           25681970                  11
## # … with 47 more rows
…
## using mutate to create new categorical variables, position
## category and streams category
chartslong <- charts %>% pivot_longer(c = contains("."), names_to = "category", 
    values_to = "value") %>% mutate(streams_cat = case_when(value > 
    2e+07 ~ "high", value <= 2e+07 & 5e+06 <= value ~ "mid", 
    value < 5e+06 & 1e+06 <= value ~ "low")) %>% mutate(position_cat = case_when(value < 
    200 & 100 < value ~ "top200", value <= 100 & 50 < value ~ 
    "top100", value <= 50 & 10 < value ~ "top50", value <= 10 ~ 
    "top10"))
chartslong

## # A tibble: 513 x 5
##    Date                category               value streams_cat position_cat
##    <dttm>              <chr>                  <dbl> <chr>       <chr>       
##  1 2019-11-21 00:00:00 Global_streams.WS   13067797 mid         <NA>        
##  2 2019-11-21 00:00:00 US_streams.WS        5465192 mid         <NA>        
##  3 2019-11-21 00:00:00 Global_streams.EIW  40323676 high        <NA>        
##  4 2019-11-21 00:00:00 US_streams.EIW      11794982 mid         <NA>        
##  5 2019-11-21 00:00:00 Global_streams.DSN  25716644 high        <NA>        
##  6 2019-11-21 00:00:00 US_streams.DSN       4753717 low         <NA>        
##  7 2019-11-21 00:00:00 Global_Position.WS        21 <NA>        top50       
##  8 2019-11-21 00:00:00 Global_Position.DSN        7 <NA>        top10       
##  9 2019-11-21 00:00:00 Global_Position.EIW        2 <NA>        top10       
## 10 2019-11-28 00:00:00 Global_streams.WS   15727628 mid         <NA>        
## # … with 503 more rows

## using mutate to create a variable that is the percent of
## total streams that are from the US
charts %>% mutate(percent_US = (US_streams.DSN + US_streams.EIW + 
    US_streams.WS)/(Global_streams.DSN + Global_streams.EIW + 
    Global_streams.WS) * 100)

## # A tibble: 57 x 11
##    Date                Global_streams.… US_streams.WS Global_streams.…
##    <dttm>                         <dbl>         <dbl>            <dbl>
##  1 2019-11-21 00:00:00         13067797       5465192         40323676
##  2 2019-11-28 00:00:00         15727628       5482936         30455759
##  3 2019-12-05 00:00:00         12448702       3862193         27081940
##  4 2019-12-12 00:00:00         13162182       4524384         22700664
##  5 2019-12-19 00:00:00         21814400       8252165         22786542
##  6 2019-12-26 00:00:00         15195825       5152495         21586527
##  7 2020-01-02 00:00:00         14548153       4811184         21828884
##  8 2020-01-09 00:00:00         15046960       4793358         23713150
##  9 2020-01-16 00:00:00         14108205       4418408         23297771
## 10 2020-01-23 00:00:00         12650858       3949802         21786149
## # … with 47 more rows, and 7 more variables: US_streams.EIW <dbl>,
## #   Global_streams.DSN <dbl>, US_streams.DSN <dbl>, Global_Position.WS <dbl>,
## #   Global_Position.DSN <dbl>, Global_Position.EIW <dbl>, percent_US <dbl>
…
